{
    "debug": true,
    "jwt_secret": "don'tPanic",
    "expire_jwt":72,
    "server": {
        "run_mode": "debug",
        "http_port": 9091,
        "read_timeout": 1000,
        "write_timeout": 1000,
        "_comment": "debug or release"
    },
    "smtp":{
        "server":"smtp.gmail.com",
        "port":587,
        "user":"",
        "passwd":"",
        "Identity":"GenUp",
        "sender":"nuryanto@gmail.com"
    },
    "app": {
        "jwt_secret": "don'tPanic",
        "page_size": 10,
        "prefix_url": "http://127.0.0.1:8000",
        "runtime_root_path": "wwwroot/runtime/",
        "image_save_path": "wwwroot/uploads/images",
        "image_size": 5,
        "image_allow_ext": ".jpg,.jpeg,.png",
        "export_save_path": "wwwroot/export/",
        "qr_code": "wwwroot/qr_code/",
        "log_save_path": "logs/",
        "log_save_name": "log",
        "log_file_ext": "log",
        "time_format": 20060102,
        "issuer": "PropertyFramework",
        "url_forgot_password":"http://localhost:8084"
    },
    "database": {
        "type": "postgres",
        "host": "127.0.0.1",
        "port": "55432",
        "user": "postgres",
        "password": "postgres",
        "name": "GenUpDB",
        "table_prefix": ""
    },
    "redisdb":{
        "host":"127.0.0.1",
        "port":6379,
        "db":1,
        "key":"ka_email",
        "password":"redis_prod"
    },
    "mongodb":{
        "host": "127.0.0.1",
        "port": "1301",
        "user": "mongoadmin_dev",
        "password": "mongo_dev",
        "name": "cukur_logs"
    }
    
}